Omar Fitian - Strings and Regular Expressions
…
# A tibble: 2,160 × 1
   word      
   <chr>     
 1 Netanyahu 
 2 Seeks     
 3 Immunity  
 4 From      
 5 Israeli   
 6 Corruption
 7 Charges   
 8 Israeli   
 9 Supreme   
10 Court     
# ℹ 2,150 more rows

Joining with `by = join_by(word)`

# A tibble: 1,484 × 13
   source             word_count url       print_section print_page author type 
   <chr>                   <dbl> <chr>     <chr>              <dbl> <chr>  <chr>
 1 The New York Times       1310 https://… A                      7 By Is… arti…
 2 The New York Times       1310 https://… A                      7 By Is… arti…
 3 The New York Times       1310 https://… A                      7 By Is… arti…
 4 The New York Times       1310 https://… A                      7 By Is… arti…
 5 The New York Times       1310 https://… A                      7 By Is… arti…
 6 The New York Times       1310 https://… A                      7 By Is… arti…
 7 The New York Times        772 https://… A                     11 By Is… arti…
 8 The New York Times        772 https://… A                     11 By Is… arti…
 9 The New York Times        772 https://… A                     11 By Is… arti…
10 The New York Times        772 https://… A                     11 By Is… arti…
# ℹ 1,474 more rows
# ℹ 6 more variables: pub_date <dttm>, news_desk <chr>, section <chr>,
#   year <dbl>, country <chr>, word <chr>
…
